09:05:00 AM.294: CPU Name: AMD Ryzen 5 3550H with Radeon Vega Mobile Gfx
09:05:00 AM.294: CPU Speed: 2100.000MHz
09:05:00 AM.294: Physical Cores: 4, Logical Cores: 8
09:05:00 AM.294: Physical Memory: 15763MB Total, 7425MB Free
09:05:00 AM.295: Kernel Version: Linux 5.11.2-lqx2-1-lqx
09:05:00 AM.295: Distribution: "Artix Linux" Unknown
09:05:00 AM.295: Session Type: tty
09:05:00 AM.295: Window System: X11.0, Vendor: The X.Org Foundation, Version: 1.20.10
09:05:00 AM.295: Portable mode: false
09:05:00 AM.354: OBS 26.1.0-28-ge6ff2b672-modified (linux)
09:05:00 AM.354: ---------------------------------
09:05:00 AM.354: ---------------------------------
09:05:00 AM.354: audio settings reset:
09:05:00 AM.354: 	samples per sec: 48000
09:05:00 AM.354: 	speakers:        2
09:05:00 AM.358: ---------------------------------
09:05:00 AM.358: Initializing OpenGL...
09:05:00 AM.446: Loading up OpenGL on adapter AMD AMD Radeon(TM) Vega 8 Graphics (RAVEN, DRM 3.40.0, 5.11.2-lqx2-1-lqx, LLVM 11.0.1)
09:05:00 AM.446: OpenGL loaded successfully, version 4.6 (Core Profile) Mesa 20.3.4, shading language 4.60
09:05:00 AM.459: ---------------------------------
09:05:00 AM.459: video settings reset:
09:05:00 AM.459: 	base resolution:   1920x1080
09:05:00 AM.459: 	output resolution: 1920x1080
09:05:00 AM.459: 	downscale filter:  Lanczos
09:05:00 AM.459: 	fps:               60/1
09:05:00 AM.459: 	format:            NV12
09:05:00 AM.459: 	YUV mode:          709/Full
09:05:00 AM.459: NV12 texture support not available
09:05:00 AM.463: Audio monitoring device:
09:05:00 AM.463: 	name: Default
09:05:00 AM.463: 	id: default
09:05:00 AM.464: ---------------------------------
09:05:00 AM.465: Failed to load 'en-US' text for module: 'decklink-captions.so'
09:05:00 AM.466: Failed to load 'en-US' text for module: 'decklink-ouput-ui.so'
09:05:00 AM.583: A DeckLink iterator could not be created.  The DeckLink drivers may not be installed
09:05:00 AM.583: No blackmagic support
09:05:00 AM.592: v4l2loopback not installed, virtual camera disabled
09:05:00 AM.594: [obs-browser]: Version 2.9.1
09:05:00 AM.594: [obs-browser]: CEF Version 75.1.14+gc81164e+chromium-75.0.3770.100
09:05:00 AM.599: os_dlopen(libnvidia-encode.so.1->libnvidia-encode.so.1): libnvidia-encode.so.1: cannot open shared object file: No such file or directory
09:05:00 AM.599: 
09:05:00 AM.599: FFMPEG VAAPI supported
09:05:00 AM.599: FFMPEG HEVC VAAPI supported
09:05:00 AM.600: os_dlopen(/usr//lib/obs-plugins/obs-outputs.so->/usr//lib/obs-plugins/obs-outputs.so): libmbedtls.so.12: cannot open shared object file: No such file or directory
09:05:00 AM.600: 
09:05:00 AM.600: Module '/usr//lib/obs-plugins/obs-outputs.so' not loaded
09:05:00 AM.604: os_dlopen(libvlc.so.5->libvlc.so.5): libvlc.so.5: cannot open shared object file: No such file or directory
09:05:00 AM.604: 
09:05:00 AM.604: Couldn't find VLC installation, VLC video source disabled
09:05:00 AM.605: [Move Transition] loaded version 2.2.1
09:05:00 AM.605: ---------------------------------
09:05:00 AM.605:   Loaded Modules:
09:05:00 AM.605:     move-transition.so
09:05:00 AM.605:     vlc-video.so
09:05:00 AM.605:     text-freetype2.so
09:05:00 AM.605:     rtmp-services.so
09:05:00 AM.605:     obs-x264.so
09:05:00 AM.605:     obs-transitions.so
09:05:00 AM.605:     obs-filters.so
09:05:00 AM.605:     obs-ffmpeg.so
09:05:00 AM.605:     obs-browser.so
09:05:00 AM.605:     linux-v4l2.so
09:05:00 AM.605:     linux-pulseaudio.so
09:05:00 AM.605:     linux-jack.so
09:05:00 AM.605:     linux-decklink.so
09:05:00 AM.605:     linux-capture.so
09:05:00 AM.605:     linux-alsa.so
09:05:00 AM.605:     input-overlay.so
09:05:00 AM.605:     image-source.so
09:05:00 AM.605:     frontend-tools.so
09:05:00 AM.605:     droidcam-obs.so
09:05:00 AM.605:     decklink-ouput-ui.so
09:05:00 AM.605:     decklink-captions.so
09:05:00 AM.605: ---------------------------------
09:05:00 AM.605: os_dlopen(../obs-plugins/obs-browser->../obs-plugins/obs-browser.so): ../obs-plugins/obs-browser.so: cannot open shared object file: No such file or directory
09:05:00 AM.605: 
09:05:00 AM.605: ==== Startup complete ===============================================
09:05:00 AM.609: All scene data cleared
09:05:00 AM.609: ------------------------------------------------
09:05:00 AM.614: pulse-input: Server name: 'pulseaudio 14.2-dirty'
09:05:00 AM.614: pulse-input: Audio format: s16le, 44100 Hz, 2 channels
09:05:00 AM.614: pulse-input: Started recording from 'alsa_output.pci-0000_04_00.6.analog-stereo.monitor'
09:05:00 AM.614: [Loaded global audio device]: 'Desktop Audio'
09:05:00 AM.615:     - filter: 'Compressor' (compressor_filter)
09:05:00 AM.615: pulse-input: Server name: 'pulseaudio 14.2-dirty'
09:05:00 AM.615: pulse-input: Audio format: s16le, 44100 Hz, 2 channels
09:05:00 AM.616: pulse-input: Started recording from 'alsa_input.pci-0000_04_00.6.analog-stereo'
09:05:00 AM.616: [Loaded global audio device]: 'Mic/Aux'
09:05:00 AM.616:     - filter: 'Noise Gate' (noise_gate_filter)
09:05:00 AM.616:     - filter: 'Noise Suppression' (noise_suppress_filter_v2)
09:05:00 AM.622: [DroidCamOBS] plugin_defaults
09:05:00 AM.622: [DroidCamOBS] create(source=0x56138cdc5780) v1.1.1
09:05:00 AM.629: [DroidCamOBS] exec adb start-server
09:05:00 AM.637: [DroidCamOBS] Error loading usbmuxd dll, iOS USB support n/a
09:05:00 AM.637: [DroidCamOBS] activated=1, deactivateWNS=0, is_showing=0, enable_audio=1
09:05:00 AM.637: [DroidCamOBS] video_format=jpg video_resolution=1920x1080
09:05:00 AM.637: [DroidCamOBS] device_info.id=320162ddfb0a1645 device_info.ip=192.168.1.145 device_info.port=4747 device_info.type=2
09:05:00 AM.637: [DroidCamOBS] video_thread start
09:05:00 AM.637: [DroidCamOBS] audio_thread start
09:05:00 AM.637: [DroidCamOBS] video_decode_thread start
09:05:00 AM.638: pulse-am: Server name: 'pulseaudio 14.2-dirty'
09:05:00 AM.638: pulse-am: Audio format: s16le, 44100 Hz, 2 channels
09:05:00 AM.639: pulse-am: Started Monitoring in 'alsa_output.pci-0000_04_00.6.analog-stereo.monitor'
09:05:00 AM.641: xshm-input: Geometry 1366x768 @ 0,0
09:05:00 AM.814: Switched to scene 'Tutorial Scene'
09:05:00 AM.814: ------------------------------------------------
09:05:00 AM.814: Loaded scenes:
09:05:00 AM.814: - scene 'Tutorial Scene':
09:05:00 AM.814:     - source: 'Screen Capture (XSHM)' (xshm_input)
09:05:00 AM.814:     - source: 'Window Capture (Xcomposite)' (xcomposite_input)
09:05:00 AM.814:     - source: 'DroidCam OBS' (droidcam_obs)
09:05:00 AM.814:         - monitoring: monitor and output
09:05:00 AM.814:         - filter: 'Noise Suppression' (noise_suppress_filter_v2)
09:05:00 AM.814:         - filter: 'Apply LUT' (clut_filter)
09:05:00 AM.814:         - filter: 'Color Correction' (color_filter)
09:05:00 AM.814:         - filter: 'Gain' (gain_filter)
09:05:00 AM.814:         - filter: 'Noise Gate' (noise_gate_filter)
09:05:00 AM.814:         - filter: 'Compressor' (compressor_filter)
09:05:00 AM.814:         - filter: 'Expander' (expander_filter)
09:05:00 AM.814:     - source: 'Input Overlay' (input-overlay)
09:05:00 AM.814: - scene 'Full Face':
09:05:00 AM.814:     - source: 'DroidCam OBS' (droidcam_obs)
09:05:00 AM.814:         - monitoring: monitor and output
09:05:00 AM.814:         - filter: 'Noise Suppression' (noise_suppress_filter_v2)
09:05:00 AM.814:         - filter: 'Apply LUT' (clut_filter)
09:05:00 AM.815:         - filter: 'Color Correction' (color_filter)
09:05:00 AM.815:         - filter: 'Gain' (gain_filter)
09:05:00 AM.815:         - filter: 'Noise Gate' (noise_gate_filter)
09:05:00 AM.815:         - filter: 'Compressor' (compressor_filter)
09:05:00 AM.815:         - filter: 'Expander' (expander_filter)
09:05:00 AM.815: ------------------------------------------------
09:05:00 AM.830: [Media Source 'Stinger (Stinger)']: settings:
09:05:00 AM.830: 	input:                   
09:05:00 AM.830: 	input_format:            (null)
09:05:00 AM.830: 	speed:                   100
09:05:00 AM.830: 	is_looping:              no
09:05:00 AM.830: 	is_hw_decoding:          yes
09:05:00 AM.830: 	is_clear_on_media_end:   yes
09:05:00 AM.830: 	restart_on_activate:     yes
09:05:00 AM.830: 	close_when_inactive:     no
09:05:00 AM.841: [DroidCamOBS] plugin_show: is_showing=1
09:05:00 AM.878: [DroidCamOBS] connect device: id=320162ddfb0a1645 type=2
09:05:00 AM.878: [DroidCamOBS] exec adb reconnect offline
09:05:00 AM.887: [DroidCamOBS] exec adb devices
09:05:00 AM.908: [DroidCamOBS] : List of devices attached
09:05:01 AM.177: adding 64 milliseconds of audio buffering, total audio buffering is now 64 milliseconds (source: Mic/Aux)
09:05:01 AM.177: 
09:05:02 AM.535: User switched to scene 'Full Face'
09:05:02 AM.948: [DroidCamOBS] connect device: id=320162ddfb0a1645 type=2
09:05:02 AM.949: [DroidCamOBS] exec adb reconnect offline
09:05:02 AM.959: [DroidCamOBS] exec adb devices
09:05:02 AM.969: [DroidCamOBS] : List of devices attached
09:05:03 AM.114: User switched to scene 'Tutorial Scene'
09:05:03 AM.706: User switched to scene 'Full Face'
09:05:04 AM.103: ==== Shutting down ==================================================
09:05:04 AM.107: [DroidCamOBS] stopping
09:05:04 AM.109: [DroidCamOBS] video_decode_thread end
09:05:04 AM.123: [DroidCamOBS] audio_thread end
09:05:05 AM.009: [DroidCamOBS] video_thread end
09:05:05 AM.009: [DroidCamOBS] cleanup
09:05:05 AM.010: pulse-am: Stopped Monitoring in 'alsa_output.pci-0000_04_00.6.analog-stereo.monitor'
09:05:05 AM.010: pulse-am: Got 0 packets with 0 frames
09:05:05 AM.010: pulse-input: Stopped recording from 'alsa_output.pci-0000_04_00.6.analog-stereo.monitor'
09:05:05 AM.010: pulse-input: Got 554 packets with 193290 frames
09:05:05 AM.010: pulse-input: Stopped recording from 'alsa_input.pci-0000_04_00.6.analog-stereo'
09:05:05 AM.010: pulse-input: Got 473 packets with 193573 frames
09:05:05 AM.011: All scene data cleared
09:05:05 AM.011: ------------------------------------------------
09:05:05 AM.056: [Scripting] Total detached callbacks: 0
09:05:05 AM.069: Freeing OBS context data
09:05:05 AM.078: == Profiler Results =============================
09:05:05 AM.078: run_program_init: 664.19 ms
09:05:05 AM.078:  ┣OBSApp::AppInit: 1.594 ms
09:05:05 AM.078:  ┃ ┗OBSApp::InitLocale: 0.644 ms
09:05:05 AM.078:  ┗OBSApp::OBSInit: 637.062 ms
09:05:05 AM.078:    ┣obs_startup: 13.092 ms
09:05:05 AM.078:    ┗OBSBasic::OBSInit: 565.338 ms
09:05:05 AM.078:      ┣OBSBasic::InitBasicConfig: 0.076 ms
09:05:05 AM.078:      ┣OBSBasic::ResetAudio: 0.087 ms
09:05:05 AM.078:      ┣OBSBasic::ResetVideo: 109.386 ms
09:05:05 AM.078:      ┣OBSBasic::InitOBSCallbacks: 0.005 ms
09:05:05 AM.078:      ┣OBSBasic::InitHotkeys: 0.046 ms
09:05:05 AM.078:      ┣obs_load_all_modules: 141.451 ms
09:05:05 AM.078:      ┃ ┣obs_init_module(decklink-captions.so): 0.022 ms
09:05:05 AM.078:      ┃ ┣obs_init_module(decklink-ouput-ui.so): 0.496 ms
09:05:05 AM.078:      ┃ ┣obs_init_module(droidcam-obs.so): 0.004 ms
09:05:05 AM.078:      ┃ ┣obs_init_module(frontend-tools.so): 75.843 ms
09:05:05 AM.078:      ┃ ┣obs_init_module(image-source.so): 0.006 ms
09:05:05 AM.078:      ┃ ┣obs_init_module(input-overlay.so): 0.754 ms
09:05:05 AM.078:      ┃ ┣obs_init_module(linux-alsa.so): 0.002 ms
09:05:05 AM.078:      ┃ ┣obs_init_module(linux-capture.so): 0.218 ms
09:05:05 AM.078:      ┃ ┣obs_init_module(linux-decklink.so): 0.102 ms
09:05:05 AM.078:      ┃ ┣obs_init_module(linux-jack.so): 0.001 ms
09:05:05 AM.078:      ┃ ┣obs_init_module(linux-pulseaudio.so): 0.002 ms
09:05:05 AM.078:      ┃ ┣obs_init_module(linux-v4l2.so): 3.487 ms
09:05:05 AM.078:      ┃ ┣obs_init_module(obs-browser.so): 0.034 ms
09:05:05 AM.078:      ┃ ┣obs_init_module(obs-ffmpeg.so): 0.207 ms
09:05:05 AM.078:      ┃ ┃ ┗nvenc_check: 0.172 ms
09:05:05 AM.078:      ┃ ┣obs_init_module(obs-filters.so): 0.017 ms
09:05:05 AM.078:      ┃ ┣obs_init_module(obs-transitions.so): 0.007 ms
09:05:05 AM.078:      ┃ ┣obs_init_module(obs-x264.so): 0.001 ms
09:05:05 AM.078:      ┃ ┣obs_init_module(rtmp-services.so): 0.597 ms
09:05:05 AM.078:      ┃ ┣obs_init_module(text-freetype2.so): 0.007 ms
09:05:05 AM.078:      ┃ ┣obs_init_module(vlc-video.so): 0.077 ms
09:05:05 AM.078:      ┃ ┗obs_init_module(move-transition.so): 0.02 ms
09:05:05 AM.078:      ┣OBSBasic::ResetOutputs: 0.132 ms
09:05:05 AM.078:      ┣OBSBasic::CreateHotkeys: 0.034 ms
09:05:05 AM.078:      ┣OBSBasic::InitService: 1.205 ms
09:05:05 AM.078:      ┣OBSBasic::InitPrimitives: 0.088 ms
09:05:05 AM.078:      ┗OBSBasic::Load: 214.111 ms
09:05:05 AM.078: obs_hotkey_thread(25 ms): min=0.044 ms, median=0.065 ms, max=9.673 ms, 99th percentile=6.18 ms, 100% below 25 ms
09:05:05 AM.078: audio_thread(Audio): min=0 ms, median=0.085 ms, max=0.296 ms, 99th percentile=0.22 ms
09:05:05 AM.078: obs_graphics_thread(16.6667 ms): min=0.067 ms, median=3.088 ms, max=176.406 ms, 99th percentile=15.542 ms, 99.6241% below 16.667 ms
09:05:05 AM.078:  ┣tick_sources: min=0 ms, median=2.482 ms, max=176.191 ms, 99th percentile=10.881 ms
09:05:05 AM.078:  ┣output_frame: min=0.039 ms, median=0.189 ms, max=4.254 ms, 99th percentile=1.572 ms
09:05:05 AM.078:  ┃ ┗gs_context(video->graphics): min=0.038 ms, median=0.189 ms, max=4.254 ms, 99th percentile=1.572 ms
09:05:05 AM.078:  ┃   ┣render_video: min=0.008 ms, median=0.111 ms, max=1.444 ms, 99th percentile=0.56 ms
09:05:05 AM.078:  ┃   ┃ ┗render_main_texture: min=0.006 ms, median=0.108 ms, max=1.439 ms, 99th percentile=0.556 ms
09:05:05 AM.078:  ┃   ┗gs_flush: min=0.026 ms, median=0.059 ms, max=3.626 ms, 99th percentile=0.274 ms
09:05:05 AM.078:  ┗render_displays: min=0.003 ms, median=0.347 ms, max=4.39 ms, 99th percentile=0.686 ms
09:05:05 AM.078: =================================================
09:05:05 AM.078: == Profiler Time Between Calls ==================
09:05:05 AM.078: obs_hotkey_thread(25 ms): min=25.066 ms, median=25.124 ms, max=34.736 ms, 97.3262% within ±2% of 25 ms (0% lower, 2.6738% higher)
09:05:05 AM.078: obs_graphics_thread(16.6667 ms): min=6.27 ms, median=16.667 ms, max=176.411 ms, 98.8679% within ±2% of 16.667 ms (0.377358% lower, 0.754717% higher)
09:05:05 AM.078: =================================================
09:05:05 AM.081: Number of memory leaks: 0
