01:08:40 AM.895: CPU Name: AMD Ryzen 5 3550H with Radeon Vega Mobile Gfx
01:08:40 AM.896: CPU Speed: 2100.000MHz
01:08:40 AM.896: Physical Cores: 4, Logical Cores: 8
01:08:40 AM.896: Physical Memory: 15763MB Total, 15165MB Free
01:08:40 AM.896: Kernel Version: Linux 5.11.1-lqx1-1-lqx
01:08:40 AM.917: Distribution: "Artix Linux" Unknown
01:08:40 AM.917: Session Type: tty
01:08:40 AM.917: Window System: X11.0, Vendor: The X.Org Foundation, Version: 1.20.10
01:08:40 AM.918: Portable mode: false
01:08:41 AM.131: OBS 26.1.0-28-ge6ff2b672-modified (linux)
01:08:41 AM.131: ---------------------------------
01:08:41 AM.205: ---------------------------------
01:08:41 AM.205: audio settings reset:
01:08:41 AM.205: 	samples per sec: 48000
01:08:41 AM.205: 	speakers:        2
01:08:41 AM.228: ---------------------------------
01:08:41 AM.228: Initializing OpenGL...
01:08:41 AM.269: Loading up OpenGL on adapter AMD AMD Radeon(TM) Vega 8 Graphics (RAVEN, DRM 3.40.0, 5.11.1-lqx1-1-lqx, LLVM 11.0.1)
01:08:41 AM.269: OpenGL loaded successfully, version 4.6 (Core Profile) Mesa 20.3.4, shading language 4.60
01:08:41 AM.578: ---------------------------------
01:08:41 AM.578: video settings reset:
01:08:41 AM.578: 	base resolution:   1920x1080
01:08:41 AM.578: 	output resolution: 1920x1080
01:08:41 AM.578: 	downscale filter:  Lanczos
01:08:41 AM.578: 	fps:               60/1
01:08:41 AM.578: 	format:            NV12
01:08:41 AM.578: 	YUV mode:          709/Full
01:08:41 AM.579: NV12 texture support not available
01:08:41 AM.601: Audio monitoring device:
01:08:41 AM.601: 	name: Default
01:08:41 AM.601: 	id: default
01:08:41 AM.602: ---------------------------------
01:08:41 AM.726: Failed to load 'en-US' text for module: 'decklink-captions.so'
01:08:41 AM.741: Failed to load 'en-US' text for module: 'decklink-ouput-ui.so'
01:08:43 AM.679: A DeckLink iterator could not be created.  The DeckLink drivers may not be installed
01:08:43 AM.680: No blackmagic support
01:08:43 AM.880: v4l2loopback not installed, virtual camera disabled
01:08:43 AM.926: [obs-browser]: Version 2.9.1
01:08:43 AM.926: [obs-browser]: CEF Version 75.1.14+gc81164e+chromium-75.0.3770.100
01:08:44 AM.249: os_dlopen(libnvidia-encode.so.1->libnvidia-encode.so.1): libnvidia-encode.so.1: cannot open shared object file: No such file or directory
01:08:44 AM.249: 
01:08:44 AM.249: FFMPEG VAAPI supported
01:08:44 AM.250: FFMPEG HEVC VAAPI supported
01:08:44 AM.280: os_dlopen(/usr//lib/obs-plugins/obs-outputs.so->/usr//lib/obs-plugins/obs-outputs.so): libmbedtls.so.12: cannot open shared object file: No such file or directory
01:08:44 AM.280: 
01:08:44 AM.280: Module '/usr//lib/obs-plugins/obs-outputs.so' not loaded
01:08:44 AM.597: [rtmp-services plugin] Remote update of URL "https://obsproject.com/obs2_update/rtmp-services/package.json" failed: Could not resolve host: obsproject.com
01:08:44 AM.612: os_dlopen(libvlc.so.5->libvlc.so.5): libvlc.so.5: cannot open shared object file: No such file or directory
01:08:44 AM.612: 
01:08:44 AM.612: Couldn't find VLC installation, VLC video source disabled
01:08:44 AM.730: [Move Transition] loaded version 2.2.1
01:08:44 AM.730: ---------------------------------
01:08:44 AM.730:   Loaded Modules:
01:08:44 AM.730:     move-transition.so
01:08:44 AM.730:     vlc-video.so
01:08:44 AM.730:     text-freetype2.so
01:08:44 AM.730:     rtmp-services.so
01:08:44 AM.730:     obs-x264.so
01:08:44 AM.730:     obs-transitions.so
01:08:44 AM.730:     obs-filters.so
01:08:44 AM.730:     obs-ffmpeg.so
01:08:44 AM.730:     obs-browser.so
01:08:44 AM.730:     linux-v4l2.so
01:08:44 AM.730:     linux-pulseaudio.so
01:08:44 AM.730:     linux-jack.so
01:08:44 AM.730:     linux-decklink.so
01:08:44 AM.730:     linux-capture.so
01:08:44 AM.730:     linux-alsa.so
01:08:44 AM.730:     input-overlay.so
01:08:44 AM.730:     image-source.so
01:08:44 AM.730:     frontend-tools.so
01:08:44 AM.730:     droidcam-obs.so
01:08:44 AM.730:     decklink-ouput-ui.so
01:08:44 AM.730:     decklink-captions.so
01:08:44 AM.730: ---------------------------------
01:08:44 AM.730: os_dlopen(../obs-plugins/obs-browser->../obs-plugins/obs-browser.so): ../obs-plugins/obs-browser.so: cannot open shared object file: No such file or directory
01:08:44 AM.730: 
01:08:44 AM.756: ==== Startup complete ===============================================
01:08:44 AM.865: All scene data cleared
01:08:44 AM.865: ------------------------------------------------
01:08:44 AM.898: pulse-input: Server name: 'pulseaudio 14.2-dirty'
01:08:44 AM.899: pulse-input: Audio format: s16le, 44100 Hz, 2 channels
01:08:44 AM.899: pulse-input: Started recording from 'alsa_output.pci-0000_04_00.6.analog-stereo.monitor'
01:08:44 AM.899: [Loaded global audio device]: 'Desktop Audio'
01:08:44 AM.899:     - filter: 'Compressor' (compressor_filter)
01:08:44 AM.900: pulse-input: Server name: 'pulseaudio 14.2-dirty'
01:08:44 AM.900: pulse-input: Audio format: s16le, 44100 Hz, 2 channels
01:08:44 AM.900: pulse-input: Started recording from 'alsa_input.pci-0000_04_00.6.analog-stereo'
01:08:44 AM.900: [Loaded global audio device]: 'Mic/Aux'
01:08:44 AM.900:     - filter: 'Noise Gate' (noise_gate_filter)
01:08:44 AM.900:     - filter: 'Noise Suppression' (noise_suppress_filter_v2)
01:08:44 AM.920: [DroidCamOBS] plugin_defaults
01:08:44 AM.920: [DroidCamOBS] create(source=0x556bbd57a780) v1.1.1
01:08:45 AM.178: [DroidCamOBS] exec adb start-server
01:08:45 AM.330: [DroidCamOBS] Error loading usbmuxd dll, iOS USB support n/a
01:08:45 AM.330: [DroidCamOBS] activated=1, deactivateWNS=0, is_showing=0, enable_audio=1
01:08:45 AM.330: [DroidCamOBS] video_format=jpg video_resolution=1920x1080
01:08:45 AM.330: [DroidCamOBS] device_info.id=320162ddfb0a1645 device_info.ip=192.168.1.145 device_info.port=4747 device_info.type=2
01:08:45 AM.330: [DroidCamOBS] video_thread start
01:08:45 AM.330: [DroidCamOBS] video_decode_thread start
01:08:45 AM.330: [DroidCamOBS] audio_thread start
01:08:45 AM.331: pulse-am: Server name: 'pulseaudio 14.2-dirty'
01:08:45 AM.331: pulse-am: Audio format: s16le, 44100 Hz, 2 channels
01:08:45 AM.352: pulse-am: Started Monitoring in 'alsa_output.pci-0000_04_00.6.analog-stereo.monitor'
01:08:45 AM.355: xshm-input: Geometry 1366x768 @ 0,0
01:08:45 AM.954: Switched to scene 'Full Face'
01:08:45 AM.954: ------------------------------------------------
01:08:45 AM.954: Loaded scenes:
01:08:45 AM.954: - scene 'Tutorial Scene':
01:08:45 AM.954:     - source: 'Screen Capture (XSHM)' (xshm_input)
01:08:45 AM.954:     - source: 'Window Capture (Xcomposite)' (xcomposite_input)
01:08:45 AM.954:     - source: 'DroidCam OBS' (droidcam_obs)
01:08:45 AM.954:         - monitoring: monitor and output
01:08:45 AM.954:         - filter: 'Noise Suppression' (noise_suppress_filter_v2)
01:08:45 AM.954:         - filter: 'Apply LUT' (clut_filter)
01:08:45 AM.954:         - filter: 'Color Correction' (color_filter)
01:08:45 AM.954:         - filter: 'Compressor' (compressor_filter)
01:08:45 AM.954:         - filter: 'Gain' (gain_filter)
01:08:45 AM.954:         - filter: 'Noise Gate' (noise_gate_filter)
01:08:45 AM.954:     - source: 'Input Overlay' (input-overlay)
01:08:45 AM.954: - scene 'Full Face':
01:08:45 AM.954:     - source: 'DroidCam OBS' (droidcam_obs)
01:08:45 AM.954:         - monitoring: monitor and output
01:08:45 AM.954:         - filter: 'Noise Suppression' (noise_suppress_filter_v2)
01:08:45 AM.954:         - filter: 'Apply LUT' (clut_filter)
01:08:45 AM.954:         - filter: 'Color Correction' (color_filter)
01:08:45 AM.954:         - filter: 'Compressor' (compressor_filter)
01:08:45 AM.954:         - filter: 'Gain' (gain_filter)
01:08:45 AM.954:         - filter: 'Noise Gate' (noise_gate_filter)
01:08:45 AM.954: ------------------------------------------------
01:08:45 AM.968: [Media Source 'Stinger (Stinger)']: settings:
01:08:45 AM.968: 	input:                   
01:08:45 AM.968: 	input_format:            (null)
01:08:45 AM.968: 	speed:                   100
01:08:45 AM.968: 	is_looping:              no
01:08:45 AM.968: 	is_hw_decoding:          yes
01:08:45 AM.968: 	is_clear_on_media_end:   yes
01:08:45 AM.968: 	restart_on_activate:     yes
01:08:45 AM.968: 	close_when_inactive:     no
01:08:45 AM.968: [DroidCamOBS] plugin_show: is_showing=1
01:08:45 AM.971: [DroidCamOBS] connect device: id=320162ddfb0a1645 type=2
01:08:45 AM.971: [DroidCamOBS] exec adb reconnect offline
01:08:45 AM.979: [DroidCamOBS] exec adb devices
01:08:45 AM.986: [DroidCamOBS] : List of devices attached
01:08:45 AM.987: [DroidCamOBS] : 320162ddfb0a1645	device
01:08:45 AM.987: [DroidCamOBS] device 320162ddfb0a1645 is device
01:08:45 AM.987: [DroidCamOBS] exec adb -s 320162ddfb0a1645 shell getprop ro.product.model
01:08:46 AM.131: [DroidCamOBS] model: SM-M205G
01:08:46 AM.131: [DroidCamOBS] checking against serial:320162ddfb0a1645 state:device
01:08:46 AM.131: 
01:08:46 AM.131: [DroidCamOBS] ADB: mapping 7173 -> 4747
01:08:46 AM.131: 
01:08:46 AM.131: [DroidCamOBS] exec adb -s 320162ddfb0a1645 forward tcp:7173 tcp:4747
01:08:46 AM.140: [DroidCamOBS] connect 127.0.0.1:7173
01:08:46 AM.140: [DroidCamOBS] GET /v3/video/jpg/1920x1080
01:08:46 AM.140: [DroidCamOBS] starting video via socket 42
01:08:46 AM.140: [DroidCamOBS] create video decoder
01:08:46 AM.162: [DroidCamOBS] read header recv returned 0
01:08:46 AM.162: [DroidCamOBS] closing failed video socket 42
01:08:48 AM.162: [DroidCamOBS] release video_decoder
01:08:48 AM.162: [DroidCamOBS] ~decoder alloc_count=0
01:08:48 AM.202: [DroidCamOBS] connect device: id=320162ddfb0a1645 type=2
01:08:48 AM.202: [DroidCamOBS] exec adb reconnect offline
01:08:48 AM.211: [DroidCamOBS] exec adb devices
01:08:48 AM.219: [DroidCamOBS] : List of devices attached
01:08:48 AM.219: [DroidCamOBS] : 320162ddfb0a1645	device
01:08:48 AM.219: [DroidCamOBS] device 320162ddfb0a1645 is device
01:08:48 AM.219: [DroidCamOBS] exec adb -s 320162ddfb0a1645 shell getprop ro.product.model
01:08:48 AM.282: [DroidCamOBS] model: SM-M205G
01:08:48 AM.282: [DroidCamOBS] checking against serial:320162ddfb0a1645 state:device
01:08:48 AM.282: 
01:08:48 AM.282: [DroidCamOBS] ADB: mapping 7174 -> 4747
01:08:48 AM.282: 
01:08:48 AM.282: [DroidCamOBS] exec adb -s 320162ddfb0a1645 forward tcp:7174 tcp:4747
01:08:48 AM.291: [DroidCamOBS] connect 127.0.0.1:7174
01:08:48 AM.291: [DroidCamOBS] starting video via socket 42
01:08:48 AM.291: [DroidCamOBS] create video decoder
01:08:48 AM.295: [DroidCamOBS] read header recv returned 0
01:08:48 AM.295: [DroidCamOBS] closing failed video socket 42
01:08:50 AM.295: [DroidCamOBS] release video_decoder
01:08:50 AM.295: [DroidCamOBS] ~decoder alloc_count=0
01:08:50 AM.335: [DroidCamOBS] connect device: id=320162ddfb0a1645 type=2
01:08:50 AM.335: [DroidCamOBS] exec adb reconnect offline
01:08:50 AM.345: [DroidCamOBS] exec adb devices
01:08:50 AM.353: [DroidCamOBS] : List of devices attached
01:08:50 AM.353: [DroidCamOBS] : 320162ddfb0a1645	device
01:08:50 AM.353: [DroidCamOBS] device 320162ddfb0a1645 is device
01:08:50 AM.353: [DroidCamOBS] exec adb -s 320162ddfb0a1645 shell getprop ro.product.model
01:08:50 AM.422: [DroidCamOBS] model: SM-M205G
01:08:50 AM.422: [DroidCamOBS] checking against serial:320162ddfb0a1645 state:device
01:08:50 AM.422: 
01:08:50 AM.422: [DroidCamOBS] ADB: mapping 7175 -> 4747
01:08:50 AM.422: 
01:08:50 AM.422: [DroidCamOBS] exec adb -s 320162ddfb0a1645 forward tcp:7175 tcp:4747
01:08:50 AM.431: [DroidCamOBS] connect 127.0.0.1:7175
01:08:50 AM.432: [DroidCamOBS] starting video via socket 42
01:08:50 AM.432: [DroidCamOBS] create video decoder
01:08:50 AM.436: [DroidCamOBS] read header recv returned 0
01:08:50 AM.436: [DroidCamOBS] closing failed video socket 42
01:08:52 AM.436: [DroidCamOBS] release video_decoder
01:08:52 AM.436: [DroidCamOBS] ~decoder alloc_count=0
01:08:52 AM.476: [DroidCamOBS] connect device: id=320162ddfb0a1645 type=2
01:08:52 AM.476: [DroidCamOBS] exec adb reconnect offline
01:08:52 AM.485: [DroidCamOBS] exec adb devices
01:08:52 AM.494: [DroidCamOBS] : List of devices attached
01:08:52 AM.494: [DroidCamOBS] : 320162ddfb0a1645	device
01:08:52 AM.494: [DroidCamOBS] device 320162ddfb0a1645 is device
01:08:52 AM.494: [DroidCamOBS] exec adb -s 320162ddfb0a1645 shell getprop ro.product.model
01:08:52 AM.557: [DroidCamOBS] model: SM-M205G
01:08:52 AM.557: [DroidCamOBS] checking against serial:320162ddfb0a1645 state:device
01:08:52 AM.557: 
01:08:52 AM.557: [DroidCamOBS] ADB: mapping 7176 -> 4747
01:08:52 AM.557: 
01:08:52 AM.557: [DroidCamOBS] exec adb -s 320162ddfb0a1645 forward tcp:7176 tcp:4747
01:08:52 AM.565: [DroidCamOBS] connect 127.0.0.1:7176
01:08:52 AM.565: [DroidCamOBS] starting video via socket 42
01:08:52 AM.565: [DroidCamOBS] create video decoder
01:08:52 AM.570: [DroidCamOBS] read header recv returned 0
01:08:52 AM.570: [DroidCamOBS] closing failed video socket 42
01:08:54 AM.570: [DroidCamOBS] release video_decoder
01:08:54 AM.570: [DroidCamOBS] ~decoder alloc_count=0
01:08:54 AM.611: [DroidCamOBS] connect device: id=320162ddfb0a1645 type=2
01:08:54 AM.611: [DroidCamOBS] exec adb reconnect offline
01:08:54 AM.619: [DroidCamOBS] exec adb devices
01:08:54 AM.629: [DroidCamOBS] : List of devices attached
01:08:54 AM.629: [DroidCamOBS] : 320162ddfb0a1645	device
01:08:54 AM.629: [DroidCamOBS] device 320162ddfb0a1645 is device
01:08:54 AM.629: [DroidCamOBS] exec adb -s 320162ddfb0a1645 shell getprop ro.product.model
01:08:54 AM.697: [DroidCamOBS] model: SM-M205G
01:08:54 AM.697: [DroidCamOBS] checking against serial:320162ddfb0a1645 state:device
01:08:54 AM.697: 
01:08:54 AM.697: [DroidCamOBS] ADB: mapping 7177 -> 4747
01:08:54 AM.697: 
01:08:54 AM.697: [DroidCamOBS] exec adb -s 320162ddfb0a1645 forward tcp:7177 tcp:4747
01:08:54 AM.711: [DroidCamOBS] connect 127.0.0.1:7177
01:08:54 AM.711: [DroidCamOBS] starting video via socket 42
01:08:54 AM.711: [DroidCamOBS] create video decoder
01:08:54 AM.715: [DroidCamOBS] read header recv returned 0
01:08:54 AM.715: [DroidCamOBS] closing failed video socket 42
01:08:55 AM.450: ==== Shutting down ==================================================
01:08:55 AM.479: [DroidCamOBS] stopping
01:08:55 AM.481: [DroidCamOBS] video_decode_thread end
01:08:55 AM.506: [DroidCamOBS] audio_thread end
01:08:56 AM.715: [DroidCamOBS] release video_decoder
01:08:56 AM.715: [DroidCamOBS] ~decoder alloc_count=0
01:08:56 AM.755: [DroidCamOBS] video_thread end
01:08:56 AM.755: [DroidCamOBS] cleanup
01:08:56 AM.755: pulse-am: Stopped Monitoring in 'alsa_output.pci-0000_04_00.6.analog-stereo.monitor'
01:08:56 AM.755: pulse-am: Got 0 packets with 0 frames
01:08:56 AM.756: pulse-input: Stopped recording from 'alsa_output.pci-0000_04_00.6.analog-stereo.monitor'
01:08:56 AM.756: pulse-input: Got 1503 packets with 521018 frames
01:08:56 AM.756: pulse-input: Stopped recording from 'alsa_input.pci-0000_04_00.6.analog-stereo'
01:08:56 AM.756: pulse-input: Got 1262 packets with 522563 frames
01:08:56 AM.756: All scene data cleared
01:08:56 AM.756: ------------------------------------------------
01:08:56 AM.792: [Scripting] Total detached callbacks: 0
01:08:56 AM.802: Freeing OBS context data
01:08:56 AM.811: == Profiler Results =============================
01:08:56 AM.811: run_program_init: 6254.63 ms
01:08:56 AM.811:  ┣OBSApp::AppInit: 159.214 ms
01:08:56 AM.811:  ┃ ┗OBSApp::InitLocale: 73.189 ms
01:08:56 AM.811:  ┗OBSApp::OBSInit: 5158.15 ms
01:08:56 AM.811:    ┣obs_startup: 34.235 ms
01:08:56 AM.811:    ┗OBSBasic::OBSInit: 4837.02 ms
01:08:56 AM.811:      ┣OBSBasic::InitBasicConfig: 0.105 ms
01:08:56 AM.811:      ┣OBSBasic::ResetAudio: 0.142 ms
01:08:56 AM.811:      ┣OBSBasic::ResetVideo: 396.097 ms
01:08:56 AM.811:      ┣OBSBasic::InitOBSCallbacks: 0.005 ms
01:08:56 AM.811:      ┣OBSBasic::InitHotkeys: 0.049 ms
01:08:56 AM.811:      ┣obs_load_all_modules: 3128.66 ms
01:08:56 AM.811:      ┃ ┣obs_init_module(decklink-captions.so): 0.024 ms
01:08:56 AM.811:      ┃ ┣obs_init_module(decklink-ouput-ui.so): 0.582 ms
01:08:56 AM.811:      ┃ ┣obs_init_module(droidcam-obs.so): 0.009 ms
01:08:56 AM.811:      ┃ ┣obs_init_module(frontend-tools.so): 994.04 ms
01:08:56 AM.811:      ┃ ┣obs_init_module(image-source.so): 0.008 ms
01:08:56 AM.811:      ┃ ┣obs_init_module(input-overlay.so): 0.734 ms
01:08:56 AM.811:      ┃ ┣obs_init_module(linux-alsa.so): 0.002 ms
01:08:56 AM.811:      ┃ ┣obs_init_module(linux-capture.so): 0.266 ms
01:08:56 AM.811:      ┃ ┣obs_init_module(linux-decklink.so): 0.146 ms
01:08:56 AM.811:      ┃ ┣obs_init_module(linux-jack.so): 0.002 ms
01:08:56 AM.811:      ┃ ┣obs_init_module(linux-pulseaudio.so): 0.005 ms
01:08:56 AM.811:      ┃ ┣obs_init_module(linux-v4l2.so): 4.906 ms
01:08:56 AM.811:      ┃ ┣obs_init_module(obs-browser.so): 0.055 ms
01:08:56 AM.811:      ┃ ┣obs_init_module(obs-ffmpeg.so): 114.448 ms
01:08:56 AM.811:      ┃ ┃ ┗nvenc_check: 114.415 ms
01:08:56 AM.811:      ┃ ┣obs_init_module(obs-filters.so): 0.018 ms
01:08:56 AM.811:      ┃ ┣obs_init_module(obs-transitions.so): 0.01 ms
01:08:56 AM.811:      ┃ ┣obs_init_module(obs-x264.so): 0.002 ms
01:08:56 AM.811:      ┃ ┣obs_init_module(rtmp-services.so): 175.105 ms
01:08:56 AM.811:      ┃ ┣obs_init_module(text-freetype2.so): 0.021 ms
01:08:56 AM.811:      ┃ ┣obs_init_module(vlc-video.so): 0.116 ms
01:08:56 AM.811:      ┃ ┗obs_init_module(move-transition.so): 0.055 ms
01:08:56 AM.811:      ┣OBSBasic::ResetOutputs: 0.63 ms
01:08:56 AM.811:      ┣OBSBasic::CreateHotkeys: 0.044 ms
01:08:56 AM.811:      ┣OBSBasic::InitService: 36.488 ms
01:08:56 AM.812:      ┣OBSBasic::InitPrimitives: 0.087 ms
01:08:56 AM.812:      ┗OBSBasic::Load: 1137.11 ms
01:08:56 AM.812: obs_hotkey_thread(25 ms): min=0.045 ms, median=0.069 ms, max=1.893 ms, 99th percentile=0.242 ms, 100% below 25 ms
01:08:56 AM.812: audio_thread(Audio): min=0 ms, median=0.08 ms, max=52.265 ms, 99th percentile=0.196 ms
01:08:56 AM.812: obs_graphics_thread(16.6667 ms): min=0.045 ms, median=0.333 ms, max=1002.34 ms, 99th percentile=1.252 ms, 99.5175% below 16.667 ms
01:08:56 AM.812:  ┣tick_sources: min=0 ms, median=0.017 ms, max=983.338 ms, 99th percentile=0.058 ms
01:08:56 AM.812:  ┣output_frame: min=0.037 ms, median=0.086 ms, max=2.232 ms, 99th percentile=0.191 ms
01:08:56 AM.812:  ┃ ┗gs_context(video->graphics): min=0.036 ms, median=0.086 ms, max=2.232 ms, 99th percentile=0.19 ms
01:08:56 AM.812:  ┃   ┣render_video: min=0.005 ms, median=0.028 ms, max=0.602 ms, 99th percentile=0.05 ms
01:08:56 AM.812:  ┃   ┃ ┗render_main_texture: min=0.004 ms, median=0.024 ms, max=0.598 ms, 99th percentile=0.044 ms
01:08:56 AM.812:  ┃   ┗gs_flush: min=0.025 ms, median=0.051 ms, max=2.183 ms, 99th percentile=0.134 ms
01:08:56 AM.812:  ┗render_displays: min=0.003 ms, median=0.197 ms, max=277.525 ms, 99th percentile=0.479 ms
01:08:56 AM.812: =================================================
01:08:56 AM.812: == Profiler Time Between Calls ==================
01:08:56 AM.812: obs_hotkey_thread(25 ms): min=25.076 ms, median=25.128 ms, max=27.181 ms, 98.5692% within ±2% of 25 ms (0% lower, 1.43084% higher)
01:08:56 AM.812: obs_graphics_thread(16.6667 ms): min=4.389 ms, median=16.667 ms, max=1002.35 ms, 98.1884% within ±2% of 16.667 ms (0.845411% lower, 0.966184% higher)
01:08:56 AM.812: =================================================
01:08:56 AM.815: Number of memory leaks: 0
