{
    "AuxAudioDevice1": {
        "balance": 0.5,
        "deinterlace_field_order": 0,
        "deinterlace_mode": 0,
        "enabled": true,
        "filters": [
            {
                "balance": 0.5,
                "deinterlace_field_order": 0,
                "deinterlace_mode": 0,
                "enabled": true,
                "flags": 0,
                "hotkeys": {},
                "id": "noise_gate_filter",
                "mixers": 255,
                "monitoring_type": 0,
                "muted": false,
                "name": "Noise Gate",
                "prev_ver": 436273152,
                "private_settings": {},
                "push-to-mute": false,
                "push-to-mute-delay": 0,
                "push-to-talk": false,
                "push-to-talk-delay": 0,
                "settings": {},
                "sync": 0,
                "versioned_id": "noise_gate_filter",
                "volume": 1.0
            },
            {
                "balance": 0.5,
                "deinterlace_field_order": 0,
                "deinterlace_mode": 0,
                "enabled": true,
                "flags": 0,
                "hotkeys": {},
                "id": "noise_suppress_filter",
                "mixers": 255,
                "monitoring_type": 0,
                "muted": false,
                "name": "Noise Suppression",
                "prev_ver": 436273152,
                "private_settings": {},
                "push-to-mute": false,
                "push-to-mute-delay": 0,
                "push-to-talk": false,
                "push-to-talk-delay": 0,
                "settings": {},
                "sync": 0,
                "versioned_id": "noise_suppress_filter_v2",
                "volume": 1.0
            }
        ],
        "flags": 0,
        "hotkeys": {
            "libobs.mute": [],
            "libobs.push-to-mute": [],
            "libobs.push-to-talk": [],
            "libobs.unmute": []
        },
        "id": "pulse_input_capture",
        "mixers": 255,
        "monitoring_type": 0,
        "muted": true,
        "name": "Mic/Aux",
        "prev_ver": 436273152,
        "private_settings": {},
        "push-to-mute": false,
        "push-to-mute-delay": 0,
        "push-to-talk": false,
        "push-to-talk-delay": 0,
        "settings": {
            "device_id": "alsa_input.pci-0000_04_00.6.analog-stereo"
        },
        "sync": 0,
        "versioned_id": "pulse_input_capture",
        "volume": 1.0
    },
    "DesktopAudioDevice1": {
        "balance": 0.5,
        "deinterlace_field_order": 0,
        "deinterlace_mode": 0,
        "enabled": true,
        "filters": [
            {
                "balance": 0.5,
                "deinterlace_field_order": 0,
                "deinterlace_mode": 0,
                "enabled": true,
                "flags": 0,
                "hotkeys": {},
                "id": "compressor_filter",
                "mixers": 255,
                "monitoring_type": 0,
                "muted": false,
                "name": "Compressor",
                "prev_ver": 436273152,
                "private_settings": {},
                "push-to-mute": false,
                "push-to-mute-delay": 0,
                "push-to-talk": false,
                "push-to-talk-delay": 0,
                "settings": {
                    "sidechain_source": "none"
                },
                "sync": 0,
                "versioned_id": "compressor_filter",
                "volume": 1.0
            }
        ],
        "flags": 0,
        "hotkeys": {
            "libobs.mute": [],
            "libobs.push-to-mute": [],
            "libobs.push-to-talk": [],
            "libobs.unmute": []
        },
        "id": "pulse_output_capture",
        "mixers": 255,
        "monitoring_type": 0,
        "muted": true,
        "name": "Desktop Audio",
        "prev_ver": 436273152,
        "private_settings": {},
        "push-to-mute": false,
        "push-to-mute-delay": 0,
        "push-to-talk": false,
        "push-to-talk-delay": 0,
        "settings": {
            "device_id": "alsa_output.pci-0000_04_00.6.analog-stereo.monitor"
        },
        "sync": 0,
        "versioned_id": "pulse_output_capture",
        "volume": 1.0
    },
    "current_program_scene": "Full Face",
    "current_scene": "Full Face",
    "current_transition": "Move (2)",
    "groups": [],
    "modules": {
        "auto-scene-switcher": {
            "active": false,
            "interval": 300,
            "non_matching_scene": "",
            "switch_if_not_matching": false,
            "switches": []
        },
        "decklink_captions": {
            "source": ""
        },
        "output-timer": {
            "autoStartRecordTimer": false,
            "autoStartStreamTimer": false,
            "pauseRecordTimer": true,
            "recordTimerHours": 0,
            "recordTimerMinutes": 0,
            "recordTimerSeconds": 30,
            "streamTimerHours": 0,
            "streamTimerMinutes": 0,
            "streamTimerSeconds": 30
        },
        "scripts-tool": []
    },
    "name": "AnasR7",
    "preview_locked": false,
    "quick_transitions": [
        {
            "duration": 300,
            "fade_to_black": false,
            "hotkeys": [],
            "id": 1,
            "name": "Cut"
        },
        {
            "duration": 300,
            "fade_to_black": false,
            "hotkeys": [],
            "id": 2,
            "name": "Fade"
        },
        {
            "duration": 300,
            "fade_to_black": true,
            "hotkeys": [],
            "id": 3,
            "name": "Fade"
        }
    ],
    "saved_projectors": [],
    "scaling_enabled": false,
    "scaling_level": 0,
    "scaling_off_x": 0.0,
    "scaling_off_y": 0.0,
    "scene_order": [
        {
            "name": "Tutorial Scene"
        },
        {
            "name": "Full Face"
        }
    ],
    "sources": [
        {
            "balance": 0.5,
            "deinterlace_field_order": 0,
            "deinterlace_mode": 0,
            "enabled": true,
            "flags": 0,
            "hotkeys": {},
            "id": "input-overlay",
            "mixers": 0,
            "monitoring_type": 0,
            "muted": false,
            "name": "Input Overlay",
            "prev_ver": 436273152,
            "private_settings": {},
            "push-to-mute": false,
            "push-to-mute-delay": 0,
            "push-to-talk": false,
            "push-to-talk-delay": 0,
            "settings": {
                "is_controller": false,
                "is_mouse": false,
                "layout_file": "/usr/share/obs/obs-plugins/input-overlay/presets/wasd/wasd-minimal.ini",
                "overlay_image": "/usr/share/obs/obs-plugins/input-overlay/presets/wasd/wasd.png"
            },
            "sync": 0,
            "versioned_id": "input-overlay",
            "volume": 1.0
        },
        {
            "balance": 0.5,
            "deinterlace_field_order": 0,
            "deinterlace_mode": 0,
            "enabled": true,
            "flags": 0,
            "hotkeys": {
                "OBSBasic.SelectScene": [],
                "libobs.hide_scene_item.DroidCam OBS": [],
                "libobs.hide_scene_item.Input Overlay": [],
                "libobs.hide_scene_item.Screen Capture (XSHM)": [],
                "libobs.hide_scene_item.Window Capture (Xcomposite)": [],
                "libobs.show_scene_item.DroidCam OBS": [],
                "libobs.show_scene_item.Input Overlay": [],
                "libobs.show_scene_item.Screen Capture (XSHM)": [],
                "libobs.show_scene_item.Window Capture (Xcomposite)": []
            },
            "id": "scene",
            "mixers": 0,
            "monitoring_type": 0,
            "muted": false,
            "name": "Tutorial Scene",
            "prev_ver": 436273152,
            "private_settings": {},
            "push-to-mute": false,
            "push-to-mute-delay": 0,
            "push-to-talk": false,
            "push-to-talk-delay": 0,
            "settings": {
                "custom_size": false,
                "id_counter": 30,
                "items": [
                    {
                        "align": 5,
                        "bounds": {
                            "x": 0.0,
                            "y": 0.0
                        },
                        "bounds_align": 0,
                        "bounds_type": 0,
                        "crop_bottom": 0,
                        "crop_left": 0,
                        "crop_right": 0,
                        "crop_top": 0,
                        "group_item_backup": false,
                        "id": 21,
                        "locked": false,
                        "name": "Screen Capture (XSHM)",
                        "pos": {
                            "x": 0.0,
                            "y": 0.0
                        },
                        "private_settings": {},
                        "rot": 0.0,
                        "scale": {
                            "x": 1.4062957763671875,
                            "y": 1.40625
                        },
                        "scale_filter": "disable",
                        "visible": true
                    },
                    {
                        "align": 5,
                        "bounds": {
                            "x": 0.0,
                            "y": 0.0
                        },
                        "bounds_align": 0,
                        "bounds_type": 0,
                        "crop_bottom": 0,
                        "crop_left": 0,
                        "crop_right": 0,
                        "crop_top": 0,
                        "group_item_backup": false,
                        "id": 27,
                        "locked": false,
                        "name": "Window Capture (Xcomposite)",
                        "pos": {
                            "x": 0.0,
                            "y": 0.0
                        },
                        "private_settings": {},
                        "rot": 0.0,
                        "scale": {
                            "x": 0.93777453899383545,
                            "y": 0.9375
                        },
                        "scale_filter": "disable",
                        "visible": false
                    },
                    {
                        "align": 5,
                        "bounds": {
                            "x": 0.0,
                            "y": 0.0
                        },
                        "bounds_align": 0,
                        "bounds_type": 0,
                        "crop_bottom": 0,
                        "crop_left": 0,
                        "crop_right": 0,
                        "crop_top": 0,
                        "group_item_backup": false,
                        "id": 26,
                        "locked": false,
                        "name": "DroidCam OBS",
                        "pos": {
                            "x": 1901.0,
                            "y": 20.0
                        },
                        "private_settings": {},
                        "rot": 0.0,
                        "scale": {
                            "x": -0.19739583134651184,
                            "y": 0.19722221791744232
                        },
                        "scale_filter": "disable",
                        "visible": true
                    },
                    {
                        "align": 5,
                        "bounds": {
                            "x": 0.0,
                            "y": 0.0
                        },
                        "bounds_align": 0,
                        "bounds_type": 0,
                        "crop_bottom": 0,
                        "crop_left": 0,
                        "crop_right": 0,
                        "crop_top": 0,
                        "group_item_backup": false,
                        "id": 30,
                        "locked": false,
                        "name": "Input Overlay",
                        "pos": {
                            "x": 37.0,
                            "y": 807.0
                        },
                        "private_settings": {},
                        "rot": 0.0,
                        "scale": {
                            "x": 0.61971831321716309,
                            "y": 0.61904764175415039
                        },
                        "scale_filter": "disable",
                        "visible": true
                    }
                ]
            },
            "sync": 0,
            "versioned_id": "scene",
            "volume": 1.0
        },
        {
            "balance": 0.5,
            "deinterlace_field_order": 0,
            "deinterlace_mode": 0,
            "enabled": true,
            "flags": 0,
            "hotkeys": {},
            "id": "xshm_input",
            "mixers": 0,
            "monitoring_type": 0,
            "muted": false,
            "name": "Screen Capture (XSHM)",
            "prev_ver": 436273152,
            "private_settings": {},
            "push-to-mute": false,
            "push-to-mute-delay": 0,
            "push-to-talk": false,
            "push-to-talk-delay": 0,
            "settings": {},
            "sync": 0,
            "versioned_id": "xshm_input",
            "volume": 1.0
        },
        {
            "balance": 0.5,
            "deinterlace_field_order": 0,
            "deinterlace_mode": 0,
            "enabled": true,
            "flags": 0,
            "hotkeys": {
                "OBSBasic.SelectScene": [],
                "libobs.hide_scene_item.DroidCam OBS": [],
                "libobs.show_scene_item.DroidCam OBS": []
            },
            "id": "scene",
            "mixers": 0,
            "monitoring_type": 0,
            "muted": false,
            "name": "Full Face",
            "prev_ver": 436273152,
            "private_settings": {},
            "push-to-mute": false,
            "push-to-mute-delay": 0,
            "push-to-talk": false,
            "push-to-talk-delay": 0,
            "settings": {
                "custom_size": false,
                "id_counter": 7,
                "items": [
                    {
                        "align": 5,
                        "bounds": {
                            "x": 1920.0,
                            "y": 1080.0
                        },
                        "bounds_align": 0,
                        "bounds_type": 2,
                        "crop_bottom": 0,
                        "crop_left": 0,
                        "crop_right": 0,
                        "crop_top": 0,
                        "group_item_backup": false,
                        "id": 5,
                        "locked": false,
                        "name": "DroidCam OBS",
                        "pos": {
                            "x": 0.0,
                            "y": 0.0
                        },
                        "private_settings": {},
                        "rot": 0.0,
                        "scale": {
                            "x": -1.0,
                            "y": 1.0
                        },
                        "scale_filter": "disable",
                        "visible": true
                    }
                ]
            },
            "sync": 0,
            "versioned_id": "scene",
            "volume": 1.0
        },
        {
            "balance": 0.5,
            "deinterlace_field_order": 0,
            "deinterlace_mode": 0,
            "enabled": true,
            "filters": [
                {
                    "balance": 0.5,
                    "deinterlace_field_order": 0,
                    "deinterlace_mode": 0,
                    "enabled": true,
                    "flags": 0,
                    "hotkeys": {},
                    "id": "noise_suppress_filter",
                    "mixers": 255,
                    "monitoring_type": 0,
                    "muted": false,
                    "name": "Noise Suppression",
                    "prev_ver": 436273152,
                    "private_settings": {},
                    "push-to-mute": false,
                    "push-to-mute-delay": 0,
                    "push-to-talk": false,
                    "push-to-talk-delay": 0,
                    "settings": {
                        "method": "rnnoise",
                        "suppress_level": -60
                    },
                    "sync": 0,
                    "versioned_id": "noise_suppress_filter_v2",
                    "volume": 1.0
                },
                {
                    "balance": 0.5,
                    "deinterlace_field_order": 0,
                    "deinterlace_mode": 0,
                    "enabled": true,
                    "flags": 0,
                    "hotkeys": {},
                    "id": "clut_filter",
                    "mixers": 0,
                    "monitoring_type": 0,
                    "muted": false,
                    "name": "Apply LUT",
                    "prev_ver": 436273152,
                    "private_settings": {},
                    "push-to-mute": false,
                    "push-to-mute-delay": 0,
                    "push-to-talk": false,
                    "push-to-talk-delay": 0,
                    "settings": {
                        "clut_amount": 0.10000000000000001,
                        "image_path": "/home/anasr/Videos/OBS-Record/LUT/LUT-Pack-yeoizf/LUT Pack/England.cube"
                    },
                    "sync": 0,
                    "versioned_id": "clut_filter",
                    "volume": 1.0
                },
                {
                    "balance": 0.5,
                    "deinterlace_field_order": 0,
                    "deinterlace_mode": 0,
                    "enabled": true,
                    "flags": 0,
                    "hotkeys": {},
                    "id": "color_filter",
                    "mixers": 0,
                    "monitoring_type": 0,
                    "muted": false,
                    "name": "Color Correction",
                    "prev_ver": 436273152,
                    "private_settings": {},
                    "push-to-mute": false,
                    "push-to-mute-delay": 0,
                    "push-to-talk": false,
                    "push-to-talk-delay": 0,
                    "settings": {
                        "brightness": 0.10000000000000001,
                        "contrast": 0.14999999999999999,
                        "gamma": 0.10000000000000001,
                        "hue_shift": -1.0
                    },
                    "sync": 0,
                    "versioned_id": "color_filter",
                    "volume": 1.0
                },
                {
                    "balance": 0.5,
                    "deinterlace_field_order": 0,
                    "deinterlace_mode": 0,
                    "enabled": true,
                    "flags": 0,
                    "hotkeys": {},
                    "id": "gain_filter",
                    "mixers": 255,
                    "monitoring_type": 0,
                    "muted": false,
                    "name": "Gain",
                    "prev_ver": 436273152,
                    "private_settings": {},
                    "push-to-mute": false,
                    "push-to-mute-delay": 0,
                    "push-to-talk": false,
                    "push-to-talk-delay": 0,
                    "settings": {
                        "db": 2.0
                    },
                    "sync": 0,
                    "versioned_id": "gain_filter",
                    "volume": 1.0
                },
                {
                    "balance": 0.5,
                    "deinterlace_field_order": 0,
                    "deinterlace_mode": 0,
                    "enabled": false,
                    "flags": 0,
                    "hotkeys": {},
                    "id": "noise_gate_filter",
                    "mixers": 255,
                    "monitoring_type": 0,
                    "muted": false,
                    "name": "Noise Gate",
                    "prev_ver": 436273152,
                    "private_settings": {},
                    "push-to-mute": false,
                    "push-to-mute-delay": 0,
                    "push-to-talk": false,
                    "push-to-talk-delay": 0,
                    "settings": {},
                    "sync": 0,
                    "versioned_id": "noise_gate_filter",
                    "volume": 1.0
                },
                {
                    "balance": 0.5,
                    "deinterlace_field_order": 0,
                    "deinterlace_mode": 0,
                    "enabled": true,
                    "flags": 0,
                    "hotkeys": {},
                    "id": "compressor_filter",
                    "mixers": 255,
                    "monitoring_type": 0,
                    "muted": false,
                    "name": "Compressor",
                    "prev_ver": 436273152,
                    "private_settings": {},
                    "push-to-mute": false,
                    "push-to-mute-delay": 0,
                    "push-to-talk": false,
                    "push-to-talk-delay": 0,
                    "settings": {},
                    "sync": 0,
                    "versioned_id": "compressor_filter",
                    "volume": 1.0
                },
                {
                    "balance": 0.5,
                    "deinterlace_field_order": 0,
                    "deinterlace_mode": 0,
                    "enabled": true,
                    "flags": 0,
                    "hotkeys": {},
                    "id": "expander_filter",
                    "mixers": 255,
                    "monitoring_type": 0,
                    "muted": false,
                    "name": "Expander",
                    "prev_ver": 436273152,
                    "private_settings": {},
                    "push-to-mute": false,
                    "push-to-mute-delay": 0,
                    "push-to-talk": false,
                    "push-to-talk-delay": 0,
                    "settings": {
                        "detector": "peak"
                    },
                    "sync": 0,
                    "versioned_id": "expander_filter",
                    "volume": 1.0
                }
            ],
            "flags": 0,
            "hotkeys": {
                "libobs.mute": [],
                "libobs.push-to-mute": [],
                "libobs.push-to-talk": [],
                "libobs.unmute": []
            },
            "id": "droidcam_obs",
            "mixers": 255,
            "monitoring_type": 2,
            "muted": false,
            "name": "DroidCam OBS",
            "prev_ver": 436273152,
            "private_settings": {},
            "push-to-mute": false,
            "push-to-mute-delay": 0,
            "push-to-talk": false,
            "push-to-talk-delay": 0,
            "settings": {
                "activated": true,
                "cur_dev_id": "320162ddfb0a1645",
                "cur_dev_type": 2,
                "device_list": "320162ddfb0a1645",
                "enable_aduio": true,
                "resolution": 3,
                "version": "v1.1.1",
                "video_format": 1,
                "wifi_ip": "192.168.1.145"
            },
            "sync": 0,
            "versioned_id": "droidcam_obs",
            "volume": 1.0
        },
        {
            "balance": 0.5,
            "deinterlace_field_order": 0,
            "deinterlace_mode": 0,
            "enabled": true,
            "flags": 0,
            "hotkeys": {},
            "id": "xcomposite_input",
            "mixers": 0,
            "monitoring_type": 0,
            "muted": false,
            "name": "Window Capture (Xcomposite)",
            "prev_ver": 436273152,
            "private_settings": {},
            "push-to-mute": false,
            "push-to-mute-delay": 0,
            "push-to-talk": false,
            "push-to-talk-delay": 0,
            "settings": {
                "capture_window": "88080389\r\nDeep Rock Galactic  \r\nsteam_app_548430"
            },
            "sync": 0,
            "versioned_id": "xcomposite_input",
            "volume": 1.0
        }
    ],
    "transition_duration": 300,
    "transitions": [
        {
            "id": "slide_transition",
            "name": "Slide",
            "settings": {
                "direction": "left"
            }
        },
        {
            "id": "move_transition",
            "name": "Move",
            "settings": {
                "transition_in": "None",
                "transition_match": "None",
                "transition_out": "None"
            }
        },
        {
            "id": "wipe_transition",
            "name": "Luma Wipe",
            "settings": {}
        },
        {
            "id": "swipe_transition",
            "name": "Swipe",
            "settings": {
                "direction": "left"
            }
        },
        {
            "id": "fade_to_color_transition",
            "name": "Fade to Color",
            "settings": {}
        },
        {
            "id": "obs_stinger_transition",
            "name": "Stinger",
            "settings": {}
        },
        {
            "id": "move_transition",
            "name": "Move (2)",
            "settings": {
                "transition_in": "None",
                "transition_match": "None",
                "transition_out": "None"
            }
        }
    ]
}